<svg width="55" height="55" viewBox="0 0 55 55" fill="none" xmlns="http://www.w3.org/2000/svg">
<rect width="55" height="55" rx="10" fill="#F7DCBF"/>
<path d="M21.5889 30.8154H27.3994C27.3219 32.4977 26.8682 33.9808 26.0381 35.2646C25.208 36.5485 24.057 37.5501 22.585 38.2695C21.124 38.9779 19.3975 39.332 17.4053 39.332C15.7894 39.332 14.3451 39.0609 13.0723 38.5186C11.8105 37.9762 10.737 37.196 9.85156 36.1777C8.97721 35.1595 8.30762 33.9255 7.84277 32.4756C7.389 31.0257 7.16211 29.3932 7.16211 27.5781V26.2666C7.16211 24.4515 7.40007 22.819 7.87598 21.3691C8.36296 19.9082 9.04915 18.6686 9.93457 17.6504C10.8311 16.6211 11.9046 15.8353 13.1553 15.293C14.4059 14.7507 15.7949 14.4795 17.3223 14.4795C19.4251 14.4795 21.2015 14.8558 22.6514 15.6084C24.1012 16.361 25.2246 17.3958 26.0215 18.7129C26.8184 20.0189 27.2887 21.5075 27.4326 23.1787H21.6221C21.5999 22.2712 21.445 21.513 21.1572 20.9043C20.8695 20.2845 20.4157 19.8197 19.7959 19.5098C19.1761 19.1999 18.3516 19.0449 17.3223 19.0449C16.6029 19.0449 15.9775 19.1777 15.4463 19.4434C14.915 19.709 14.4723 20.1296 14.1182 20.7051C13.764 21.2806 13.4984 22.0277 13.3213 22.9463C13.1553 23.8538 13.0723 24.9495 13.0723 26.2334V27.5781C13.0723 28.862 13.1497 29.9577 13.3047 30.8652C13.4596 31.7728 13.7087 32.5143 14.0518 33.0898C14.3949 33.6654 14.8376 34.0915 15.3799 34.3682C15.9333 34.6338 16.6084 34.7666 17.4053 34.7666C18.2907 34.7666 19.0378 34.6283 19.6465 34.3516C20.2552 34.0638 20.7256 33.6322 21.0576 33.0566C21.3896 32.4701 21.5667 31.723 21.5889 30.8154ZM41.3613 14.8281V39H35.5342V14.8281H41.3613ZM48.6328 14.8281V19.3271H28.4287V14.8281H48.6328Z" fill="#313131"/>
</svg>
